<?xml version="1.0" standalone="no"?> 
<!DOCTYPE svg PUBLIC "-//W3C//DTD SVG 1.1//EN" "http://www.w3.org/Graphics/SVG/1.1/DTD/svg11.dtd" >
<svg xmlns="http://www.w3.org/2000/svg">
<defs>
  <font id="iconic" horiz-adv-x="512">
    <font-face font-family="iconic"
      units-per-em="1001" ascent="1001"
      descent="0" />
    <missing-glyph horiz-adv-x="0" />
    <glyph glyph-name="arr-bottom"
      unicode="&#xE001;"
      horiz-adv-x="1725.0109589041097" d="M1704.4424657534248 866.6191780821918C1704.4424657534248 833.7095890410959 1693.472602739726 795.3150684931506 1666.0479452054794 767.8904109589041L936.5520547945204 38.3945205479453C909.1273972602738 10.9698630136986 881.7027397260274 0 843.3082191780821 0C804.913698630137 0 777.4890410958903 10.9698630136986 750.0643835616438 38.3945205479453L20.568493150685 767.8904109589041C-34.2808219178082 822.7397260273973 -34.2808219178082 905.013698630137 20.568493150685 959.86301369863C75.4178082191781 1014.7123287671232 152.2068493150685 1014.7123287671232 207.0561643835617 959.86301369863L843.3082191780821 323.6109589041096L1479.5602739726028 959.86301369863C1534.4095890410958 1014.7123287671232 1611.1986301369864 1014.7123287671232 1666.0479452054794 959.86301369863C1693.472602739726 932.4383561643835 1704.4424657534248 899.5287671232877 1704.4424657534248 866.6191780821918z" />
    <glyph glyph-name="arr-left"
      unicode="&#xE002;"
      horiz-adv-x="1001" d="M257.7780283203125 559.30875C257.7780283203125 575.1351074218751 263.8211748046876 590.965375 275.8800966796875 603.03602734375L655.7302705078125 982.87642578125C679.8930810546875 1007.039236328125 719.0689365234375 1007.039236328125 743.2219716796875 982.87642578125C767.3750068359375 958.723390625 767.3750068359375 919.55535546875 743.2219716796875 895.39058984375L407.1147158203125 559.30875L743.1985107421875 223.2132246093751C767.3515458984375 199.0601894531251 767.3515458984375 159.8862890625001 743.1985107421875 135.7352089843751C719.0454755859375 111.5606679687501 679.8813505859374 111.5606679687501 655.7185400390625 135.7352089843751L275.8664111328125 515.5697421875C263.8094443359375 527.646259765625 257.7780283203125 543.4765273437499 257.7780283203125 559.30875z" />
    <glyph glyph-name="arr-right"
      unicode="&#xE003;"
      horiz-adv-x="570.6070487304687" d="M509.9126747558593 515.5692534179688L130.0664110839844 135.7347202148438C105.9036005371094 111.5601791992187 66.7277450683594 111.5601791992187 42.5766649902344 135.7347202148438C18.4236298339844 159.8877553710938 18.4236298339844 199.0616557617189 42.5766649902344 223.2127358398437L378.6819657714844 559.3082612304688L42.5864403808594 895.3920561523437C18.4334052246094 919.5548666992188 18.4334052246094 958.7248569335939 42.5864403808594 982.8778920898438C66.7394755371093 1007.0407026367188 105.9133759277344 1007.0407026367188 130.0761864746094 982.8778920898438L509.9224501464845 603.0374936523438C521.9989677246093 590.9551108398438 528.0303837402344 575.1365737304687 528.0303837402344 559.3102163085938C528.0303837402344 543.4760385742188 521.9872372558593 527.6457709960938 509.9126747558594 515.5692534179689z" />
    <glyph glyph-name="cart-new"
      unicode="&#xE004;"
      horiz-adv-x="1206.205" d="M97.5975 880.88L367.8675 880.88L367.8675 360.36L918.4175 360.36L1108.6075 765.765L583.0824999999999 765.765M367.8675 135.135C367.8675 110.2573334438719 388.0348334438719 90.09 412.9125 90.09C437.7901665561281 90.09 457.9575 110.2573334438719 457.9575 135.135C457.9575 160.0126665561281 437.7901665561281 180.18 412.9125 180.18C388.0348334438719 180.18 367.8675 160.0126665561281 367.8675 135.135zM773.2724999999999 135.135C773.2724999999999 110.2573334438719 793.4398334438717 90.09 818.3174999999999 90.09C843.195166556128 90.09 863.3624999999998 110.2573334438719 863.3624999999998 135.135C863.3624999999998 160.0126665561281 843.195166556128 180.18 818.3174999999999 180.18C793.4398334438717 180.18 773.2724999999999 160.0126665561281 773.2724999999999 135.135z" />
    <glyph glyph-name="comp"
      unicode="&#xE005;"
      horiz-adv-x="1122.2086626620298" d="M6.962377489725 321.8517230477395L38.6095478975656 290.2045526398988L1115.2462851723049 290.2045526398988L1083.599114764464 321.8517230477395zM1083.599114764464 978.2140373063548H7.5953208978819V180.7053430287703H1083.599114764464V978.2140373063548H1083.599114764464zM319.3199494151123 22.7859626936453L350.967119822953 -8.8612077141954L802.5722415428392 -8.8612077141954L770.9250711349985 22.7859626936453zM545.2807461270946 29.1153967752134L576.9279165349352 -2.5317736326273L576.9279165349352 147.7922858046159L545.2807461270946 179.4394562124564z" />
    <glyph glyph-name="dislike"
      unicode="&#xE006;"
      horiz-adv-x="988.5451612903227" d="M395.0951612903227 362.1129032258065V177.5967741935483A138.38709677419357 138.38709677419357 0 0 1 533.4822580645161 39.2096774193547L717.9983870967742 454.3709677419354V961.7903225806452H196.7403225806452A92.25806451612904 92.25806451612904 0 0 1 104.4822580645161 883.3709677419355L39.9016129032258 468.2096774193548A92.25806451612904 92.25806451612904 0 0 1 118.3209677419355 362.1129032258064H395.0951612903227zM717.9983870967742 961.7903225806452H842.5467741935486A101.94516129032259 101.94516129032259 0 0 0 948.6435483870968 869.5322580645161V546.6290322580645A108.40322580645164 108.40322580645164 0 0 0 842.5467741935486 454.3709677419355H717.9983870967744" />
    <glyph glyph-name="like"
      unicode="&#xE007;"
      horiz-adv-x="988.5451612903227" d="M593.45 638.8870967741935V823.4032258064516A138.38709677419357 138.38709677419357 0 0 1 455.0629032258065 961.7903225806452L270.5467741935485 546.6290322580645V39.2096774193547H791.8048387096775A92.25806451612904 92.25806451612904 0 0 1 884.0629032258065 117.6290322580644L948.6435483870968 532.790322580645A92.25806451612904 92.25806451612904 0 0 1 870.2241935483871 638.8870967741934H593.45zM270.5467741935485 39.2096774193547H132.1596774193549A92.25806451612904 92.25806451612904 0 0 0 39.9016129032258 131.4677419354838V454.3709677419354A92.25806451612904 92.25806451612904 0 0 0 132.1596774193549 546.6290322580644H270.5467741935485" />
    <glyph glyph-name="ruble"
      unicode="&#xE008;"
      horiz-adv-x="753.3780630105017" d="M69.497666277713 339.8961493582264C43.8010501750292 339.8961493582264 22.7765460910152 318.8716452742125 22.7765460910152 293.1750291715286S43.8010501750292 246.453908984831 69.497666277713 246.453908984831H186.3004667444574V66.5775962660443C186.3004667444574 40.8809801633605 207.3249708284714 19.8564760793466 233.0215869311552 19.8564760793466S279.742707117853 40.8809801633605 279.742707117853 66.5775962660443V246.453908984831H539.0449241540257C564.7415402567094 246.453908984831 585.7660443407234 267.4784130688448 585.7660443407234 293.1750291715287S564.7415402567094 339.8961493582265 539.0449241540257 339.8961493582265H279.742707117853V436.8424737456244H460.7870478413069C609.1266044340724 436.8424737456244 730.6015169194866 558.3173862310385 730.6015169194866 706.656942823804S609.1266044340723 976.4714119019836 460.7870478413069 976.4714119019836H234.1896149358227C210.8290548424738 976.4714119019836 192.1406067677946 960.1190198366394 188.6365227537923 937.926487747958C187.4684947491249 933.2543757292882 186.3004667444575 928.5822637106183 186.3004667444575 923.9101516919486V531.4527421236872H69.497666277713C43.8010501750292 531.4527421236872 22.7765460910152 510.4282380396733 22.7765460910152 484.7316219369894S43.8010501750292 438.0105017502917 69.497666277713 438.0105017502917H186.3004667444575V341.0641773628938H69.497666277713V339.8961493582264zM279.742707117853 883.0291715285881H460.7870478413069C557.7333722287048 883.0291715285881 637.1592765460911 803.6032672112019 637.1592765460911 706.656942823804S557.7333722287048 530.2847141190199 460.7870478413069 530.2847141190199H279.742707117853V883.0291715285881z" />
    <glyph glyph-name="sravnenie"
      unicode="&#xE009;"
      horiz-adv-x="875.875" d="M62.5625 1001A62.5625 62.5625 0 0 0 125.125 938.4375V62.5625A62.5625 62.5625 0 1 0 0 62.5625V938.4375A62.5625 62.5625 0 0 0 62.5625 1001zM563.0625 1001A62.5625 62.5625 0 0 0 625.625 938.4375V62.5625A62.5625 62.5625 0 1 0 500.5 62.5625V938.4375A62.5625 62.5625 0 0 0 563.0625 1001zM312.8125 750.75A62.5625 62.5625 0 0 0 375.375 688.1875V62.5625A62.5625 62.5625 0 1 0 250.25 62.5625V688.1875A62.5625 62.5625 0 0 0 312.8125 750.75zM813.3125 750.75A62.5625 62.5625 0 0 0 875.875 688.1875V62.5625A62.5625 62.5625 0 1 0 750.75 62.5625V688.1875A62.5625 62.5625 0 0 0 813.3125 750.75z" />
    <glyph glyph-name="star"
      unicode="&#xE00A;"
      horiz-adv-x="1001" d="M500.5 211.560368627451L809.809 25.0250000000001L727.976268627451 376.825468627451L1001 613.4128000000001L641.091431372549 644.294631372549L500.5 975.975L359.9105313725491 644.294631372549L0 613.4128000000001L273.0237313725491 376.825468627451L191.191 25.0250000000001z" />
    <glyph glyph-name="tv"
      unicode="&#xE00B;"
      horiz-adv-x="1122.2086626620298" d="M407.6155548529877 440.8450837812204L439.2627252608284 409.1979133733797L439.2627252608284 716.8084097375909L407.6155548529877 748.4555801454316zM296.2175150173886 748.4555801454316L327.8646854252292 716.8084097375909L550.6607650964273 716.8084097375909L519.0135946885867 748.4555801454316zM708.5801454315522 442.110970597534L740.2273158393929 410.4638001896933L634.5257666772051 717.7578248498262L602.8785962693644 749.4049952576668zM719.340183370218 442.110970597534L750.9873537780587 410.4638001896933L856.6889029402465 717.7578248498262L825.0417325324058 749.4049952576668zM1099.106228264306 978.2140373063548H23.1024343977238V212.3525134366108H1099.106228264306V978.2140373063548H1099.106228264306zM303.1798925071135 22.7859626936453L334.8270629149542 -8.8612077141954L849.7265254505215 -8.8612077141954L818.079355042681 22.7859626936453zM516.1653493518811 48.7366424280746L547.8125197597217 17.089472020234L547.8125197597217 169.6288333860259L516.1653493518811 201.2760037938666zM605.4103699019918 48.7366424280746L637.0575403098323 17.089472020234L637.0575403098323 169.6288333860259L605.4103699019918 201.2760037938666z" />
  </font>
</defs>
</svg>
